4.1 tidyverse | Aulas de R
…
Aqui temos uma tabela no formado “largo”, onde tenho uma coluna por ano.
Não há nada de errado com essa formatação, mas usando as funções de base do R e as funções do conjunto tidyverse é mais fácil que transformemos esta tabela para o formato “longo” como no exemplo abaixo.

long <- wide %>% 
    tidyr::pivot_longer(
        cols = "2009":"2012", # Quais colunas quero mudar
        names_to = "Ano",     # Nome da variável que vai conter o nome das colunas
        values_to = "Valor")  # Nome da variável que vai conter os valores

long

# A tibble: 40 x 3
   Pop.  Ano   Valor
   <chr> <chr> <dbl>
 1 a     2009      1
 2 a     2010      3
 3 a     2011     54
 4 a     2012    536
 5 b     2009      3
 6 b     2010      5
 7 b     2011      3
 8 b     2012     63
 9 c     2009      5
10 c     2010      2
# … with 30 more rows
…
Este pacote serve para manipulação, adição, extração, ordenação de strings.
Strings são classificadas como qualquer conjunto de caracteres, podendo constituir palavras ou frases ou qualquer sequência de caracteres.
Este pacote é muito útil para extrair palavras específicas de textos ou para verificar se algum termo especificado está presente no texto estudado.
Stringr Cheat Sheet

4.1.5 tibble

tibbles são equivalentes a dataframes, são tabelas que contém dados.
A diferença é que alguns tibbles respondem de forma diferente à algumas funções, por exemplo, a nossa tabela “longa” da seção 4.1.2 é uma tibble, portanto quando imprimimos ela no console apenas vemos as primeiras 10 linhas, porém quando tentamos imprimir como um data.frame todas as linhas (até o limite de 1000) são impressas, o que pode ser exagero quando se quer ter noção dos dados.

# Imprimindo como tibble

print(long)

# A tibble: 40 x 3
   Pop.  Ano   Valor
   <chr> <chr> <dbl>
 1 a     2009      1
 2 a     2010      3
 3 a     2011     54
 4 a     2012    536
 5 b     2009      3
 6 b     2010      5
 7 b     2011      3
 8 b     2012     63
 9 c     2009      5
10 c     2010      2
# … with 30 more rows
…
